<?xml version="1.0" encoding="utf-8"?>
<!-- Generator: Adobe Illustrator 19.1.0, SVG Export Plug-In . SVG Version: 6.00 Build 0)  -->
<svg version="1.1" id="Layer_1" xmlns="http://www.w3.org/2000/svg" xmlns:xlink="http://www.w3.org/1999/xlink" x="0px" y="0px"
	 viewBox="0 0 41.5 51" style="enable-background:new 0 0 41.5 51;" xml:space="preserve">
<style type="text/css">
	.st0{fill:#E54141;}
</style>
<path class="st0" d="M31.6,45.3c-0.2,1.4-1.5,2.3-2.9,2.1L6.4,43.7c-1.4-0.2-2.3-1.5-2.1-2.9l5.8-35.5C10.3,4,11.6,3.1,13,3.3
	l22.4,3.6c1.4,0.2,2.3,1.5,2.1,2.9L31.6,45.3z"/>
</svg>
