<?xml version="1.0" encoding="utf-8"?>
<!-- Generator: Adobe Illustrator 19.1.0, SVG Export Plug-In . SVG Version: 6.00 Build 0)  -->
<svg version="1.1" id="Layer_1" xmlns="http://www.w3.org/2000/svg" xmlns:xlink="http://www.w3.org/1999/xlink" x="0px" y="0px"
	 viewBox="0 0 70 70" style="enable-background:new 0 0 70 70;" xml:space="preserve">
<style type="text/css">
	.st0{fill:#151E23;}
	.st1{fill:none;}
	.st2{fill:#BC2A2A;}
	.st3{fill:#59A826;}
	.st4{fill:#FFFFFF;}
</style>
<g>
	<path class="st0" d="M30.2,42.8l0.3-0.1c0.9-0.3,1.8,0.2,2,1.1c0.3,0.9-0.2,1.8-1.1,2L52.2,39v-3.4L30.2,42.8z"/>
	<polygon class="st1" points="9.9,52.7 24.5,61.2 24.5,48 	"/>
	<polygon class="st1" points="14,16 8.6,49.7 24.5,44.6 24.5,17.6 	"/>
	<polygon class="st0" points="27.8,43.5 30.2,42.8 27.8,43.5 	"/>
	<polygon class="st0" points="27.8,47 31.2,45.9 27.8,46.9 	"/>
	<path class="st0" d="M32.5,43.8c-0.3-0.9-1.2-1.3-2-1.1l-0.3,0.1l-2.4,0.8v3.4l3.4-1.1l0.2-0.1C32.3,45.5,32.8,44.6,32.5,43.8z"/>
	<polygon class="st0" points="31.4,45.8 31.4,45.8 31.2,45.9 	"/>
	<polygon class="st2" points="24.5,65 25.4,65.5 24.5,65 	"/>
	<path class="st2" d="M24.5,48v13.2V65l0.8,0.5c0,0,0.1,0,0.1,0.1c0,0,0.1,0,0.1,0.1c0.2,0.1,0.4,0.1,0.6,0.1c0,0,0,0,0,0l0,0
		c0,0,0,0,0,0c0.2,0,0.4,0,0.6-0.1c0,0,0.1,0,0.1-0.1c0.2-0.1,0.3-0.2,0.5-0.3c0,0,0,0,0,0c0.1-0.1,0.2-0.2,0.2-0.3c0,0,0-0.1,0-0.1
		c0.1-0.1,0.1-0.2,0.1-0.3c0-0.1,0.1-0.2,0.1-0.3c0,0,0-0.1,0-0.1V47v0L24.5,48z"/>
	<polygon class="st2" points="27.8,43.5 27.8,43.5 24.5,44.6 24.5,48 27.8,46.9 	"/>
	<polygon class="st2" points="27.8,17.5 26.1,17.8 24.5,17.6 24.5,44.6 27.8,43.5 	"/>
	<g>
		<path class="st3" d="M54.8,57.6c-0.1,0-0.2,0-0.3-0.1L33.5,46.2l-2.6,3.7c-0.1,0.1-0.3,0.2-0.4,0.2c0,0-0.1,0-0.1,0
			c-0.2,0-0.4-0.2-0.4-0.4l-3.7-11.9c-0.1-0.2,0-0.3,0.1-0.5c0.1-0.1,0.3-0.2,0.4-0.2c0,0,12.4-0.2,12.4-0.2c0.2,0,0.4,0.1,0.5,0.3
			c0.1,0.2,0.1,0.4-0.1,0.6l-3,3.6l18.6,15.2c0.2,0.2,0.3,0.5,0.1,0.7C55.2,57.5,55,57.6,54.8,57.6z"/>
		<g>
			<path class="st4" d="M39.2,37.5l-3.4,4L54.8,57L33.3,45.5l-2.9,4.1l-3.7-11.9L39.2,37.5 M39.2,36.4
				C39.2,36.4,39.2,36.4,39.2,36.4l-12.4,0.2c-0.3,0-0.7,0.2-0.8,0.4c-0.2,0.3-0.3,0.6-0.2,0.9l3.7,11.9c0.1,0.4,0.5,0.7,0.9,0.7
				c0.1,0,0.1,0,0.2,0c0.3,0,0.7-0.2,0.9-0.5l2.3-3.3l20.7,11c0.2,0.1,0.3,0.1,0.5,0.1c0.3,0,0.7-0.2,0.9-0.5
				c0.3-0.5,0.2-1.1-0.2-1.4L37.3,41.4l2.7-3.2c0.3-0.3,0.3-0.8,0.2-1.1C40,36.7,39.6,36.4,39.2,36.4L39.2,36.4z"/>
		</g>
	</g>
	<g>
		<g>
			<g>
				<path class="st4" d="M53.2,66.1c-3.6,0-6.9-1.6-9.1-4.4c-3.9-5-3.1-12.3,1.9-16.2c2.1-1.6,4.5-2.5,7.1-2.5
					c3.6,0,6.9,1.6,9.1,4.4c1.9,2.4,2.8,5.4,2.4,8.5c-0.4,3.1-1.9,5.8-4.3,7.7C58.2,65.2,55.8,66.1,53.2,66.1z"/>
				<path d="M53.1,43.5L53.1,43.5c3.4,0,6.6,1.5,8.7,4.2c1.8,2.3,2.6,5.2,2.3,8.1c-0.3,2.9-1.8,5.5-4.1,7.4c-2,1.5-4.3,2.4-6.8,2.4
					c-3.4,0-6.6-1.5-8.7-4.2c-3.8-4.8-2.9-11.7,1.9-15.5C48.3,44.3,50.6,43.5,53.1,43.5 M53.1,42.5c-2.6,0-5.2,0.8-7.4,2.6
					c-5.2,4.1-6.1,11.7-2,16.9c2.4,3,5.9,4.6,9.5,4.6c2.6,0,5.2-0.8,7.4-2.6c5.2-4.1,6.1-11.7,2-16.9C60.2,44.1,56.7,42.5,53.1,42.5
					L53.1,42.5z"/>
			</g>
		</g>
		<path class="st0" d="M49.2,53c0.2,1.4,0.4,2.8,0.5,4.2c1.3,0.5,2.6,1,3.9,1.5c1.1-0.9,2.2-1.7,3.3-2.6c-0.2-1.4-0.4-2.8-0.6-4.2
			c-1.3-0.5-2.6-1-3.9-1.5C51.5,51.2,50.3,52.1,49.2,53z"/>
		<path d="M61.9,61.1c-0.6,0.7-1.2,1.4-2,2c-0.8,0.6-1.6,1.1-2.4,1.4c0.4,0.2,0.8,0.3,1.2,0.5c0,0,0,0,0,0c0.6-0.3,1.2-0.7,1.8-1.2
			c0.6-0.5,1.1-1,1.6-1.5c0,0,0,0,0,0C62.1,62,62,61.6,61.9,61.1z"/>
		<path class="st0" d="M46,45.6c-5,3.9-5.8,11.1-1.9,16c3.9,5,11.1,5.8,16,1.9c5-3.9,5.8-11.1,1.9-16C58.1,42.6,50.9,41.7,46,45.6z
			 M54.7,44.3c-0.2,0-0.5-0.1-0.7-0.1C54.2,44.2,54.4,44.3,54.7,44.3z M44.9,48.1c-0.7,0.8-1.2,1.7-1.5,2.7
			C43.7,49.8,44.2,48.9,44.9,48.1z M43.3,50.8c-0.1,0.2-0.2,0.5-0.2,0.7C43.2,51.3,43.2,51,43.3,50.8z M43.1,51.6
			c-0.1,0.2-0.1,0.5-0.2,0.7C42.9,52,43,51.8,43.1,51.6z M42.9,52.3c-0.1,0.2-0.1,0.5-0.1,0.7C42.8,52.8,42.8,52.5,42.9,52.3z
			 M42.7,53.1c0,0.2-0.1,0.5-0.1,0.7C42.7,53.5,42.7,53.3,42.7,53.1z M44.4,60.4c0.1,0.2,0.3,0.4,0.4,0.6c0.2,0.2,0.3,0.4,0.5,0.5
			c-0.2-0.2-0.3-0.4-0.5-0.5C44.7,60.8,44.6,60.6,44.4,60.4z M43.3,58.2c0.1,0.2,0.2,0.5,0.3,0.7C43.5,58.7,43.4,58.5,43.3,58.2z
			 M43.6,59c0.1,0.2,0.2,0.4,0.3,0.7C43.8,59.5,43.7,59.2,43.6,59z M44,59.7c0.1,0.2,0.2,0.4,0.4,0.6C44.2,60.1,44.1,59.9,44,59.7z
			 M63.3,55.9c-0.8,0.7-1.6,1.4-2.5,2.1c0.1,1,0.3,1.9,0.5,2.8c0.1-0.2,0.2-0.3,0.4-0.5c-0.6,0.9-1.3,1.7-2.2,2.4
			c-0.7,0.6-1.5,1-2.3,1.4c-0.9-0.4-1.8-0.7-2.7-1.1c-0.9,0.6-1.8,1.3-2.7,1.9c0.2,0,0.4,0,0.6,0.1c-2.1-0.1-4.2-0.9-5.9-2.2
			c0.2,0.1,0.4,0.3,0.6,0.4c-0.2-1.2-0.3-2.4-0.5-3.6c-1.2-0.4-2.3-0.9-3.4-1.3c-0.5-1.4-0.7-3-0.6-4.5c0.9-0.8,1.8-1.6,2.7-2.4
			c-0.2-1.1-0.3-2.2-0.5-3.3c0.5-0.6,1.1-1.2,1.7-1.7c1.5-1.2,3.3-1.9,5.1-2.1c-1,0.1-2,0.4-2.9,0.8c1,0.4,2,0.9,3.1,1.3
			c1-0.7,1.9-1.4,2.9-2.1c2,0.3,4,1.3,5.6,2.8c-0.3-0.3-0.7-0.6-1-0.9c0.1,1,0.3,2.1,0.4,3.2c1,0.4,2,0.8,3,1.1
			C63.3,52.2,63.6,54.1,63.3,55.9z M63.3,55.9c0,0.2-0.1,0.4-0.1,0.6C63.3,56.3,63.3,56.1,63.3,55.9z M63.2,56.6
			c0,0.2-0.1,0.4-0.1,0.6C63.1,57,63.2,56.8,63.2,56.6z M63.1,57.2c-0.1,0.2-0.1,0.4-0.2,0.6C63,57.6,63,57.4,63.1,57.2z M62.9,57.9
			c-0.1,0.2-0.1,0.4-0.2,0.6C62.8,58.3,62.8,58.1,62.9,57.9z M62.7,58.5c-0.1,0.2-0.2,0.4-0.3,0.6C62.5,58.9,62.6,58.7,62.7,58.5z
			 M62.4,59.1c-0.1,0.2-0.2,0.4-0.3,0.6C62.2,59.5,62.3,59.3,62.4,59.1z M62.1,59.7c-0.1,0.2-0.2,0.3-0.3,0.5
			C61.9,60.1,62,59.9,62.1,59.7z M57.2,64.1c-0.2,0.1-0.4,0.2-0.6,0.2C56.8,64.3,57,64.2,57.2,64.1z M56.5,64.4
			c-0.2,0.1-0.3,0.1-0.5,0.2C56.1,64.5,56.3,64.5,56.5,64.4z M55.9,64.6c-0.2,0.1-0.4,0.1-0.6,0.2C55.4,64.7,55.7,64.7,55.9,64.6z
			 M55.2,64.8c-0.2,0-0.4,0.1-0.6,0.1C54.8,64.8,55,64.8,55.2,64.8z M54.5,64.9c-0.2,0-0.4,0-0.6,0.1C54.1,64.9,54.3,64.9,54.5,64.9
			z M53.9,65c-0.2,0-0.4,0-0.6,0C53.4,65,53.6,65,53.9,65z M53.2,65c-0.2,0-0.4,0-0.6,0C52.8,65,53,65,53.2,65z M45.4,61.7
			c0.2,0.2,0.3,0.3,0.5,0.5C45.8,62,45.6,61.9,45.4,61.7z M45.9,62.2c0.2,0.2,0.4,0.3,0.5,0.5C46.3,62.5,46.1,62.4,45.9,62.2z
			 M53.9,44.2c-0.2,0-0.5,0-0.7,0C53.4,44.2,53.7,44.2,53.9,44.2z M53.2,44.2c-0.2,0-0.5,0-0.7,0C52.7,44.2,52.9,44.2,53.2,44.2z
			 M52.4,44.2c-0.2,0-0.5,0-0.7,0.1C51.9,44.2,52.1,44.2,52.4,44.2z M61.2,48.2c0.1,0.2,0.3,0.3,0.4,0.5
			C61.5,48.5,61.3,48.3,61.2,48.2c-0.1-0.2-0.3-0.3-0.4-0.5C60.9,47.8,61.1,48,61.2,48.2z M60.7,47.5c-0.1-0.1-0.3-0.3-0.4-0.4
			C60.4,47.3,60.6,47.4,60.7,47.5z M61.7,48.8c0.1,0.1,0.2,0.3,0.3,0.4C61.9,49.1,61.8,49,61.7,48.8z M62,49.3
			c0.2,0.4,0.4,0.8,0.6,1.2C62.4,50.1,62.2,49.7,62,49.3z"/>
	</g>
	<polygon class="st1" points="22,13.9 26.1,14.5 52.2,8.9 52.2,7.8 	"/>
	<path class="st0" d="M22,13.9l30.1-6.2V4.4l-39.8,8.1c0,0,0,0,0,0c-0.1,0-0.2,0.1-0.3,0.1c-0.1,0-0.2,0.1-0.3,0.1
		c-0.1,0.1-0.1,0.1-0.2,0.2c-0.1,0.1-0.2,0.2-0.2,0.3c0,0.1-0.1,0.2-0.1,0.2c-0.1,0.1-0.1,0.2-0.1,0.4c0,0,0,0,0,0L5,51.3
		c-0.1,0.3-0.2,0.6-0.1,0.9l0,0.1c-0.1,0.7,0.2,1.3,0.8,1.7l18.9,11v-3.8L9.9,52.7L24.5,48v-3.4l-16,5.1L14,16l10.5,1.6l1.6,0.2
		l1.7-0.3l24.4-5.2V8.9l-26,5.6L22,13.9z"/>
</g>
</svg>
