<?xml version="1.0" encoding="utf-8"?>
<!-- Generator: Adobe Illustrator 19.1.0, SVG Export Plug-In . SVG Version: 6.00 Build 0)  -->
<svg version="1.1" id="Layer_1" xmlns="http://www.w3.org/2000/svg" xmlns:xlink="http://www.w3.org/1999/xlink" x="0px" y="0px"
	 viewBox="0 0 66 38" style="enable-background:new 0 0 66 38;" xml:space="preserve">
<style type="text/css">
	.st0{fill:#82A1AD;}
	.st1{fill:#91B7C6;}
	.st2{fill:#D3E6EF;}
	.st3{fill:#4C6870;}
</style>
<g>
	<path class="st0" d="M49.8,30.7l-13.5-2.9c0,0,0-8.5-0.1-9.2c0-0.2,15.7,0.4,15.7,0.6S49.8,30.7,49.8,30.7z"/>
	<polygon class="st0" points="3.4,29.4 29.4,35.2 29.4,26 3.1,21 	"/>
	<path class="st1" d="M51.3,4.7c-5.1,0-9.3,4.1-10.6,9.9L28.4,26v9.2l12.9-11.9c1.7,4.5,5.6,7.6,10,7.6c6.1,0,11-5.8,11-12.9
		S57.4,4.7,51.3,4.7z"/>
	<path class="st2" d="M2.2,21L26.5,3.2c0,0,0.8-0.6,1.9-0.5c1.1,0.1,22.9,2,22.9,2L28.4,26L2.2,21z"/>
	<polygon class="st0" points="8.9,19.5 26.2,22.7 30.4,19.1 13.3,16.4 	"/>
	<polygon class="st3" points="13.3,16.4 13.3,20.3 26.2,22.7 30.4,19.1 	"/>
</g>
</svg>
