<?xml version="1.0" encoding="UTF-8" standalone="no"?>
<svg viewBox="0 0 61 61" version="1.1" xmlns="http://www.w3.org/2000/svg" xmlns:xlink="http://www.w3.org/1999/xlink" xmlns:sketch="http://www.bohemiancoding.com/sketch/ns">
    <!-- Generator: Sketch 3.3.3 (12072) - http://www.bohemiancoding.com/sketch -->
    <title>whistle</title>
    <desc>Created with Sketch.</desc>
    <defs></defs>
    <g id="Page-1" stroke="none" stroke-width="1" fill="none" fill-rule="evenodd" sketch:type="MSPage">
        <g id="whistle" sketch:type="MSArtboardGroup">
            <g sketch:type="MSLayerGroup" transform="translate(0.000000, 15.000000)" id="Group">
                <g sketch:type="MSShapeGroup">
                    <path d="M47.8,28.7 L34.3,25.8 C34.3,25.8 34.3,17.3 34.2,16.6 C34.2,16.4 49.9,17 49.9,17.2 C49.9,17.4 47.8,28.7 47.8,28.7 L47.8,28.7 Z" id="Shape" fill="#82A1AD"></path>
                    <path d="M1.4,27.4 L27.4,33.2 L27.4,24 L1.1,19 L1.4,27.4 Z" id="Shape" fill="#82A1AD"></path>
                    <path d="M49.3,2.7 C44.2,2.7 40,6.8 38.7,12.6 L26.4,24 L26.4,33.2 L39.3,21.3 C41,25.8 44.9,28.9 49.3,28.9 C55.4,28.9 60.3,23.1 60.3,16 C60.3,8.9 55.4,2.7 49.3,2.7 L49.3,2.7 Z" id="Shape" fill="#91B7C6"></path>
                    <path d="M0.2,19 L24.5,1.2 C24.5,1.2 25.3,0.6 26.4,0.7 C27.5,0.8 49.3,2.7 49.3,2.7 L26.4,24 L0.2,19 L0.2,19 Z" id="Shape" fill="#D3E6EF"></path>
                    <path d="M6.9,17.5 L24.2,20.7 L28.4,17.1 L11.3,14.4 L6.9,17.5 Z" id="Shape" fill="#82A1AD"></path>
                    <path d="M11.3,14.4 L11.3,18.3 L24.2,20.7 L28.4,17.1 L11.3,14.4 Z" id="Shape" fill="#4C6870"></path>
                </g>
            </g>
        </g>
    </g>
</svg>